<?xml version="1.0" encoding="UTF-8" standalone="no"?>
<svg
   xmlns:dc="http://purl.org/dc/elements/1.1/"
   xmlns:cc="http://creativecommons.org/ns#"
   xmlns:rdf="http://www.w3.org/1999/02/22-rdf-syntax-ns#"
   xmlns:svg="http://www.w3.org/2000/svg"
   xmlns="http://www.w3.org/2000/svg"
   xmlns:sodipodi="http://sodipodi.sourceforge.net/DTD/sodipodi-0.dtd"
   xmlns:inkscape="http://www.inkscape.org/namespaces/inkscape"
   viewBox="0 0 400.34977 192.575"
   version="1.1"
   id="svg122"
   sodipodi:docname="tst.svg"
   width="400.34976"
   height="192.575"
   inkscape:version="1.0.2 (1.0.2+r75+1)">
  <metadata
     id="metadata128">
    <rdf:RDF>
      <cc:Work
         rdf:about="">
        <dc:format>image/svg+xml</dc:format>
        <dc:type
           rdf:resource="http://purl.org/dc/dcmitype/StillImage" />
        <dc:title></dc:title>
      </cc:Work>
    </rdf:RDF>
  </metadata>
  <defs
     id="defs126" />
  <sodipodi:namedview
     pagecolor="#ffffff"
     bordercolor="#666666"
     borderopacity="1"
     objecttolerance="10"
     gridtolerance="10"
     guidetolerance="10"
     inkscape:pageopacity="0"
     inkscape:pageshadow="2"
     inkscape:window-width="1920"
     inkscape:window-height="960"
     id="namedview124"
     showgrid="false"
     fit-margin-top="0"
     fit-margin-left="0"
     fit-margin-right="0"
     fit-margin-bottom="0"
     inkscape:zoom="1.5878906"
     inkscape:cx="231.08249"
     inkscape:cy="95.975"
     inkscape:window-x="0"
     inkscape:window-y="27"
     inkscape:window-maximized="1"
     inkscape:current-layer="svg122" />
  <!--! Font Awesome Pro 6.1.1 by @fontawesome - https://fontawesome.com License - https://fontawesome.com/license (Commercial License) Copyright 2022 Fonticons, Inc. -->
  <g
     transform="rotate(-90,264.17489,375.80011)"
     id="g118">
    <path
       d="m 447.4,349.6 c 0.4,2.3 0.7,-95.3 0.6,-19.9 V 288 h 64 v -52.8 c 0,-14.5 4.9,-28.6 14,-40 L 583,124 c 11.1,-13.8 31.2,-16.9 44.1,-5 14.7,11.1 16.9,31.2 5,44.1 L 576,235.2 v 167.5 l 54.6,54.7 c 12.5,12.5 12.5,32.7 0,45.2 -12.5,12.5 -32.7,12.5 -45.2,0 L 530.7,448 C 518.7,435.1 512,419.7 512,352 Z"
       id="path116" />
  </g>
  <path
     d="m 81.455563,174.66727 -33.93798,-47.47379 c -1.38418,-1.87397 -3.17849,-2.81095 -4.99843,-2.81095 -1.8084,0 -3.61936,0.93768 -4.99073,2.81407 L 3.5904231,174.67039 c -4.44960999,6.0005 -1.30087,16.34202 5.00611,16.34202 H 76.446893 c 6.29032,0 9.44317,-10.34152 5.00867,-16.34514 z"
     id="path120"
     style="stroke-width:0.298252" />
</svg>